{
  "introFile": "courseware-intro.pug",
  "header": "Angular 2 exercises",
  "openExerciseLink": false,
  "todoFilePath": "todo.pug",
  "todos": [
    "01-component-template",
    "02-component-interface",
    "03-dependency-injection",
    "04-component-advanced",
    "05-forms",
    "06-http-communication",
    "07-routing"
  ],
  "plugins": {
    "xAnnouncer": {
      "firebaseUrl": "https://shining-fire-1263.firebaseio.com"
    }
  }
}